A Smaller Version of LIME • kumquat
…
Step 5: Examine the outputs

Case 1: The point is not near the decision boundary

In this case, according to ks[[1]]$local_model$importances both x and y are equally important.

# str(ks)
ks[[1]]
#> $perturbations
#> # A tibble: 441 × 3
#>         x        y pred 
#>     <dbl>    <dbl> <fct>
#>  1 -0.105 -0.0966  B    
#>  2 -0.105 -0.0866  B    
#>  3 -0.105 -0.0766  B    
#>  4 -0.105 -0.0666  B    
#>  5 -0.105 -0.0566  B    
#>  6 -0.105 -0.0466  B    
#>  7 -0.105 -0.0366  B    
#>  8 -0.105 -0.0266  B    
#>  9 -0.105 -0.0166  B    
#> 10 -0.105 -0.00659 B    
#> # ℹ 431 more rows
…
#> Levels: A B
#> 
#> $local_model$importances
#>   x   y 
#> 0.5 0.5 
#> 
#> $local_model$model
#> NULL
#> 
#> 
#> $point_of_interest
#> [1] 912
#> 
#> $train_data
#> # A tibble: 5,000 × 4
#>         x      y class pred 
#>     <dbl>  <dbl> <fct> <fct>
#>  1  0.885  0.615 A     A    
#>  2 -0.264  0.649 B     B    
#>  3  0.190  0.197 B     B    
#>  4 -0.752 -0.749 B     B    
#>  5 -0.817  0.661 B     B    
#>  6  0.533 -0.305 A     A    
#>  7  0.695  0.154 A     A    
#>  8  0.143 -0.300 B     B    
#>  9 -0.647 -0.795 B     B    
#> 10  0.300  0.739 B     B    
#> # ℹ 4,990 more rows

Case 2: The point is near the decision boundary

In this case, according to ks[[2]]$local_model$importances, x has an importance of -1000.3018471 and y has an importance of 0. Since the decision boundary was made using just the x variable we would expect the x variable to be more important in the model’s decision making process.

# str(ks)
ks[[2]]
#> $perturbations
#> # A tibble: 441 × 3
#>        x     y pred 
#>    <dbl> <dbl> <fct>
#>  1 0.214 0.408 B    
#>  2 0.214 0.418 B    
#>  3 0.214 0.428 B    
#>  4 0.214 0.438 B    
#>  5 0.214 0.448 B    
#>  6 0.214 0.458 B    
#>  7 0.214 0.468 B    
#>  8 0.214 0.478 B    
#>  9 0.214 0.488 B    
#> 10 0.214 0.498 B    
#> # ℹ 431 more rows
…
#> 
#> Call:  glmnet::cv.glmnet(x = X, y = y, nfolds = nfolds, family = "binomial",      alpha = alpha) 
#> 
#> Measure: Binomial Deviance 
#> 
#>        Lambda Index  Measure        SE Nonzero
#> min 5.115e-05    98 0.001352 0.0001798       1
#> 1se 5.614e-05    97 0.001479 0.0001968       1
#> 
#> 
#> $point_of_interest
#> [1] 1915
#> 
#> $train_data
#> # A tibble: 5,000 × 4
#>         x      y class pred 
#>     <dbl>  <dbl> <fct> <fct>
#>  1  0.885  0.615 A     A    
#>  2 -0.264  0.649 B     B    
#>  3  0.190  0.197 B     B    
#>  4 -0.752 -0.749 B     B    
#>  5 -0.817  0.661 B     B    
#>  6  0.533 -0.305 A     A    
#>  7  0.695  0.154 A     A    
#>  8  0.143 -0.300 B     B    
#>  9 -0.647 -0.795 B     B    
#> 10  0.300  0.739 B     B    
#> # ℹ 4,990 more rows
…
